<svg xmlns="http://www.w3.org/2000/svg" width="31" height="29" viewBox="0 0 31 29">
    <path fill="#FFF" fill-rule="evenodd" d="M13.252 26.984C5.27 19.746 0 14.972 0 9.112 0 4.34 3.751.587 8.525.587c2.697 0 5.285 1.256 6.975 3.24 1.69-1.984 4.278-3.24 6.975-3.24C27.249.587 31 4.34 31 9.112c0 5.86-5.27 10.634-13.252 17.887L15.5 29.03l-2.248-2.046z"/>
</svg>
